{
  "id": "string",
  "items": [
    {
      "creationTimestamp": "string",
      "description": "string",
      "detailedStatus": "string",
      "id": "string",
      "ikeVersion": 5,
      "kind": "compute#vpnTunnel",
      "localTrafficSelector": [
        "string",
        "string",
        "string",
        "string",
        "string",
        "string",
        "string",
        "string"
      ],
      "name": "string",
      "peerExternalGateway": "string",
      "peerExternalGatewayInterface": 6,
      "peerGcpGateway": "string",
      "peerIp": "string",
      "region": "string",
      "remoteTrafficSelector": [
        "string",
        "string",
        "string",
        "string",
        "string",
        "string",
        "string",
        "string",
        "string",
        "string"
      ],
      "router": "string",
      "selfLink": "string",
      "sharedSecret": "string",
      "sharedSecretHash": "string",
      "status": "NO_INCOMING_PACKETS",
      "targetVpnGateway": "string",
      "vpnGateway": "string",
      "vpnGatewayInterface": 9
    },
    {
      "creationTimestamp": "string",
      "description": "string",
      "detailedStatus": "string",
      "id": "string",
      "ikeVersion": 8,
      "kind": "compute#vpnTunnel",
      "localTrafficSelector": [
        "string",
        "string",
        "string",
        "string",
        "string",
        "string",
        "string"
      ],
      "name": "string",
      "peerExternalGateway": "string",
      "peerExternalGatewayInterface": 9,
      "peerGcpGateway": "string",
      "peerIp": "string",
      "region": "string",
      "remoteTrafficSelector": [
        "string"
      ],
      "router": "string",
      "selfLink": "string",
      "sharedSecret": "string",
      "sharedSecretHash": "string",
      "status": "WAITING_FOR_FULL_CONFIG",
      "targetVpnGateway": "string",
      "vpnGateway": "string",
      "vpnGatewayInterface": 7
    },
    {
      "creationTimestamp": "string",
      "description": "string",
      "detailedStatus": "string",
      "id": "string",
      "ikeVersion": 5,
      "kind": "compute#vpnTunnel",
      "localTrafficSelector": [
        "string",
        "string",
        "string",
        "string",
        "string",
        "string",
        "string",
        "string"
      ],
      "name": "string",
      "peerExternalGateway": "string",
      "peerExternalGatewayInterface": 9,
      "peerGcpGateway": "string",
      "peerIp": "string",
      "region": "string",
      "remoteTrafficSelector": [
        "string",
        "string",
        "string",
        "string",
        "string"
      ],
      "router": "string",
      "selfLink": "string",
      "sharedSecret": "string",
      "sharedSecretHash": "string",
      "status": "AUTHORIZATION_ERROR",
      "targetVpnGateway": "string",
      "vpnGateway": "string",
      "vpnGatewayInterface": 7
    },
    {
      "creationTimestamp": "string",
      "description": "string",
      "detailedStatus": "string",
      "id": "string",
      "ikeVersion": 2,
      "kind": "compute#vpnTunnel",
      "localTrafficSelector": [
        "string",
        "string"
      ],
      "name": "string",
      "peerExternalGateway": "string",
      "peerExternalGatewayInterface": 3,
      "peerGcpGateway": "string",
      "peerIp": "string",
      "region": "string",
      "remoteTrafficSelector": [
        "string",
        "string",
        "string",
        "string",
        "string",
        "string",
        "string",
        "string",
        "string",
        "string"
      ],
      "router": "string",
      "selfLink": "string",
      "sharedSecret": "string",
      "sharedSecretHash": "string",
      "status": "FAILED",
      "targetVpnGateway": "string",
      "vpnGateway": "string",
      "vpnGatewayInterface": 5
    },
    {
      "creationTimestamp": "string",
      "description": "string",
      "detailedStatus": "string",
      "id": "string",
      "ikeVersion": 4,
      "kind": "compute#vpnTunnel",
      "localTrafficSelector": [
        "string",
        "string",
        "string",
        "string",
        "string",
        "string",
        "string"
      ],
      "name": "string",
      "peerExternalGateway": "string",
      "peerExternalGatewayInterface": 3,
      "peerGcpGateway": "string",
      "peerIp": "string",
      "region": "string",
      "remoteTrafficSelector": [
        "string",
        "string",
        "string",
        "string",
        "string"
      ],
      "router": "string",
      "selfLink": "string",
      "sharedSecret": "string",
      "sharedSecretHash": "string",
      "status": "PROVISIONING",
      "targetVpnGateway": "string",
      "vpnGateway": "string",
      "vpnGatewayInterface": 3
    }
  ],
  "kind": "compute#vpnTunnelList",
  "nextPageToken": "string",
  "selfLink": "string",
  "warning": {
    "code": "FIELD_VALUE_OVERRIDEN",
    "data": [
      {
        "key": "string",
        "value": "string"
      },
      {
        "key": "string",
        "value": "string"
      },
      {
        "key": "string",
        "value": "string"
      },
      {
        "key": "string",
        "value": "string"
      },
      {
        "key": "string",
        "value": "string"
      },
      {
        "key": "string",
        "value": "string"
      },
      {
        "key": "string",
        "value": "string"
      }
    ],
    "message": "string"
  }
}