{
  "checkIntervalSec": 2,
  "creationTimestamp": "string",
  "description": "string",
  "grpcHealthCheck": {
    "grpcServiceName": "string",
    "port": 3,
    "portName": "string",
    "portSpecification": "USE_NAMED_PORT"
  },
  "healthyThreshold": 5,
  "http2HealthCheck": {
    "host": "string",
    "port": 10,
    "portName": "string",
    "portSpecification": "USE_SERVING_PORT",
    "proxyHeader": "NONE",
    "requestPath": "string",
    "response": "string"
  },
  "httpHealthCheck": {
    "host": "string",
    "port": 10,
    "portName": "string",
    "portSpecification": "USE_SERVING_PORT",
    "proxyHeader": "NONE",
    "requestPath": "string",
    "response": "string"
  },
  "httpsHealthCheck": {
    "host": "string",
    "port": 8,
    "portName": "string",
    "portSpecification": "USE_NAMED_PORT",
    "proxyHeader": "NONE",
    "requestPath": "string",
    "response": "string"
  },
  "id": "string",
  "kind": "compute#healthCheck",
  "name": "string",
  "region": "string",
  "selfLink": "string",
  "sslHealthCheck": {
    "port": 4,
    "portName": "string",
    "portSpecification": "USE_NAMED_PORT",
    "proxyHeader": "NONE",
    "request": "string",
    "response": "string"
  },
  "tcpHealthCheck": {
    "port": 1,
    "portName": "string",
    "portSpecification": "USE_SERVING_PORT",
    "proxyHeader": "PROXY_V1",
    "request": "string",
    "response": "string"
  },
  "timeoutSec": 5,
  "type": "HTTPS",
  "unhealthyThreshold": 5
}