{
  "actions": [
    {
      "name": "getProjectAggregatedTargetVpnGateways",
      "protocol": "REST",
      "method": "GET",
      "entitypath": "{base_path}/{version}/projects/{pathv1}/aggregated/targetVpnGateways?{query}",
      "requestSchema": "schema.json",
      "responseSchema": "schema.json",
      "timeout": 0,
      "sendEmpty": false,
      "sendGetBody": false,
      "requestDatatype": "JSON",
      "responseDatatype": "JSON",
      "headers": {},
      "responseObjects": [
        {
          "type": "default",
          "key": "",
          "mockFile": "mockdatafiles/getProjectAggregatedTargetVpnGateways-default.json"
        }
      ]
    },
    {
      "name": "getProjectRegionsRegionTargetVpnGateways",
      "protocol": "REST",
      "method": "GET",
      "entitypath": "{base_path}/{version}/projects/{pathv1}/regions/{pathv2}/targetVpnGateways?{query}",
      "requestSchema": "schema.json",
      "responseSchema": "schema.json",
      "timeout": 0,
      "sendEmpty": false,
      "sendGetBody": false,
      "requestDatatype": "JSON",
      "responseDatatype": "JSON",
      "headers": {},
      "responseObjects": [
        {
          "type": "default",
          "key": "",
          "mockFile": "mockdatafiles/getProjectRegionsRegionTargetVpnGateways-default.json"
        }
      ]
    },
    {
      "name": "postProjectRegionsRegionTargetVpnGateways",
      "protocol": "REST",
      "method": "POST",
      "entitypath": "{base_path}/{version}/projects/{pathv1}/regions/{pathv2}/targetVpnGateways?{query}",
      "requestSchema": "schema.json",
      "responseSchema": "schema.json",
      "timeout": 0,
      "sendEmpty": false,
      "requestDatatype": "JSON",
      "responseDatatype": "JSON",
      "headers": {},
      "responseObjects": [
        {
          "type": "default",
          "key": "",
          "mockFile": "mockdatafiles/postProjectRegionsRegionTargetVpnGateways-default.json"
        }
      ]
    },
    {
      "name": "deleteProjectRegionsRegionTargetVpnGatewaysTargetVpnGateway",
      "protocol": "REST",
      "method": "DELETE",
      "entitypath": "{base_path}/{version}/projects/{pathv1}/regions/{pathv2}/targetVpnGateways/{pathv3}?{query}",
      "requestSchema": "schema.json",
      "responseSchema": "schema.json",
      "timeout": 0,
      "sendEmpty": false,
      "requestDatatype": "JSON",
      "responseDatatype": "JSON",
      "headers": {},
      "responseObjects": [
        {
          "type": "default",
          "key": "",
          "mockFile": "mockdatafiles/deleteProjectRegionsRegionTargetVpnGatewaysTargetVpnGateway-default.json"
        }
      ]
    },
    {
      "name": "getProjectRegionsRegionTargetVpnGatewaysTargetVpnGateway",
      "protocol": "REST",
      "method": "GET",
      "entitypath": "{base_path}/{version}/projects/{pathv1}/regions/{pathv2}/targetVpnGateways/{pathv3}?{query}",
      "requestSchema": "schema.json",
      "responseSchema": "schema.json",
      "timeout": 0,
      "sendEmpty": false,
      "sendGetBody": false,
      "requestDatatype": "JSON",
      "responseDatatype": "JSON",
      "headers": {},
      "responseObjects": [
        {
          "type": "default",
          "key": "",
          "mockFile": "mockdatafiles/getProjectRegionsRegionTargetVpnGatewaysTargetVpnGateway-default.json"
        }
      ]
    }
  ]
}