{
  "actions": [
    {
      "name": "getProjectGlobalLicenses",
      "protocol": "REST",
      "method": "GET",
      "entitypath": "{base_path}/{version}/projects/{pathv1}/global/licenses?{query}",
      "requestSchema": "schema.json",
      "responseSchema": "schema.json",
      "timeout": 0,
      "sendEmpty": false,
      "sendGetBody": false,
      "requestDatatype": "JSON",
      "responseDatatype": "JSON",
      "headers": {},
      "responseObjects": [
        {
          "type": "default",
          "key": "",
          "mockFile": "mockdatafiles/getProjectGlobalLicenses-default.json"
        }
      ]
    },
    {
      "name": "postProjectGlobalLicenses",
      "protocol": "REST",
      "method": "POST",
      "entitypath": "{base_path}/{version}/projects/{pathv1}/global/licenses?{query}",
      "requestSchema": "schema.json",
      "responseSchema": "schema.json",
      "timeout": 0,
      "sendEmpty": false,
      "requestDatatype": "JSON",
      "responseDatatype": "JSON",
      "headers": {},
      "responseObjects": [
        {
          "type": "default",
          "key": "",
          "mockFile": "mockdatafiles/postProjectGlobalLicenses-default.json"
        }
      ]
    },
    {
      "name": "deleteProjectGlobalLicensesLicense",
      "protocol": "REST",
      "method": "DELETE",
      "entitypath": "{base_path}/{version}/projects/{pathv1}/global/licenses/{pathv2}?{query}",
      "requestSchema": "schema.json",
      "responseSchema": "schema.json",
      "timeout": 0,
      "sendEmpty": false,
      "requestDatatype": "JSON",
      "responseDatatype": "JSON",
      "headers": {},
      "responseObjects": [
        {
          "type": "default",
          "key": "",
          "mockFile": "mockdatafiles/deleteProjectGlobalLicensesLicense-default.json"
        }
      ]
    },
    {
      "name": "getProjectGlobalLicensesLicense",
      "protocol": "REST",
      "method": "GET",
      "entitypath": "{base_path}/{version}/projects/{pathv1}/global/licenses/{pathv2}?{query}",
      "requestSchema": "schema.json",
      "responseSchema": "schema.json",
      "timeout": 0,
      "sendEmpty": false,
      "sendGetBody": false,
      "requestDatatype": "JSON",
      "responseDatatype": "JSON",
      "headers": {},
      "responseObjects": [
        {
          "type": "default",
          "key": "",
          "mockFile": "mockdatafiles/getProjectGlobalLicensesLicense-default.json"
        }
      ]
    },
    {
      "name": "getProjectGlobalLicensesResourceGetIamPolicy",
      "protocol": "REST",
      "method": "GET",
      "entitypath": "{base_path}/{version}/projects/{pathv1}/global/licenses/{pathv2}/getIamPolicy?{query}",
      "requestSchema": "schema.json",
      "responseSchema": "schema.json",
      "timeout": 0,
      "sendEmpty": false,
      "sendGetBody": false,
      "requestDatatype": "JSON",
      "responseDatatype": "JSON",
      "headers": {},
      "responseObjects": [
        {
          "type": "default",
          "key": "",
          "mockFile": "mockdatafiles/getProjectGlobalLicensesResourceGetIamPolicy-default.json"
        }
      ]
    },
    {
      "name": "postProjectGlobalLicensesResourceSetIamPolicy",
      "protocol": "REST",
      "method": "POST",
      "entitypath": "{base_path}/{version}/projects/{pathv1}/global/licenses/{pathv2}/setIamPolicy?{query}",
      "requestSchema": "schema.json",
      "responseSchema": "schema.json",
      "timeout": 0,
      "sendEmpty": false,
      "requestDatatype": "JSON",
      "responseDatatype": "JSON",
      "headers": {},
      "responseObjects": [
        {
          "type": "default",
          "key": "",
          "mockFile": "mockdatafiles/postProjectGlobalLicensesResourceSetIamPolicy-default.json"
        }
      ]
    },
    {
      "name": "postProjectGlobalLicensesResourceTestIamPermissions",
      "protocol": "REST",
      "method": "POST",
      "entitypath": "{base_path}/{version}/projects/{pathv1}/global/licenses/{pathv2}/testIamPermissions?{query}",
      "requestSchema": "schema.json",
      "responseSchema": "schema.json",
      "timeout": 0,
      "sendEmpty": false,
      "requestDatatype": "JSON",
      "responseDatatype": "JSON",
      "headers": {},
      "responseObjects": [
        {
          "type": "default",
          "key": "",
          "mockFile": "mockdatafiles/postProjectGlobalLicensesResourceTestIamPermissions-default.json"
        }
      ]
    }
  ]
}