{
  "actions": [
    {
      "name": "getProjectAggregatedUrlMaps",
      "protocol": "REST",
      "method": "GET",
      "entitypath": "{base_path}/{version}/projects/{pathv1}/aggregated/urlMaps?{query}",
      "requestSchema": "schema.json",
      "responseSchema": "schema.json",
      "timeout": 0,
      "sendEmpty": false,
      "sendGetBody": false,
      "requestDatatype": "JSON",
      "responseDatatype": "JSON",
      "headers": {},
      "responseObjects": [
        {
          "type": "default",
          "key": "",
          "mockFile": "mockdatafiles/getProjectAggregatedUrlMaps-default.json"
        }
      ]
    },
    {
      "name": "getProjectGlobalUrlMaps",
      "protocol": "REST",
      "method": "GET",
      "entitypath": "{base_path}/{version}/projects/{pathv1}/global/urlMaps?{query}",
      "requestSchema": "schema.json",
      "responseSchema": "schema.json",
      "timeout": 0,
      "sendEmpty": false,
      "sendGetBody": false,
      "requestDatatype": "JSON",
      "responseDatatype": "JSON",
      "headers": {},
      "responseObjects": [
        {
          "type": "default",
          "key": "",
          "mockFile": "mockdatafiles/getProjectGlobalUrlMaps-default.json"
        }
      ]
    },
    {
      "name": "postProjectGlobalUrlMaps",
      "protocol": "REST",
      "method": "POST",
      "entitypath": "{base_path}/{version}/projects/{pathv1}/global/urlMaps?{query}",
      "requestSchema": "schema.json",
      "responseSchema": "schema.json",
      "timeout": 0,
      "sendEmpty": false,
      "requestDatatype": "JSON",
      "responseDatatype": "JSON",
      "headers": {},
      "responseObjects": [
        {
          "type": "default",
          "key": "",
          "mockFile": "mockdatafiles/postProjectGlobalUrlMaps-default.json"
        }
      ]
    },
    {
      "name": "deleteProjectGlobalUrlMapsUrlMap",
      "protocol": "REST",
      "method": "DELETE",
      "entitypath": "{base_path}/{version}/projects/{pathv1}/global/urlMaps/{pathv2}?{query}",
      "requestSchema": "schema.json",
      "responseSchema": "schema.json",
      "timeout": 0,
      "sendEmpty": false,
      "requestDatatype": "JSON",
      "responseDatatype": "JSON",
      "headers": {},
      "responseObjects": [
        {
          "type": "default",
          "key": "",
          "mockFile": "mockdatafiles/deleteProjectGlobalUrlMapsUrlMap-default.json"
        }
      ]
    },
    {
      "name": "getProjectGlobalUrlMapsUrlMap",
      "protocol": "REST",
      "method": "GET",
      "entitypath": "{base_path}/{version}/projects/{pathv1}/global/urlMaps/{pathv2}?{query}",
      "requestSchema": "schema.json",
      "responseSchema": "schema.json",
      "timeout": 0,
      "sendEmpty": false,
      "sendGetBody": false,
      "requestDatatype": "JSON",
      "responseDatatype": "JSON",
      "headers": {},
      "responseObjects": [
        {
          "type": "default",
          "key": "",
          "mockFile": "mockdatafiles/getProjectGlobalUrlMapsUrlMap-default.json"
        }
      ]
    },
    {
      "name": "patchProjectGlobalUrlMapsUrlMap",
      "protocol": "REST",
      "method": "PATCH",
      "entitypath": "{base_path}/{version}/projects/{pathv1}/global/urlMaps/{pathv2}?{query}",
      "requestSchema": "schema.json",
      "responseSchema": "schema.json",
      "timeout": 0,
      "sendEmpty": false,
      "requestDatatype": "JSON",
      "responseDatatype": "JSON",
      "headers": {},
      "responseObjects": [
        {
          "type": "default",
          "key": "",
          "mockFile": "mockdatafiles/patchProjectGlobalUrlMapsUrlMap-default.json"
        }
      ]
    },
    {
      "name": "putProjectGlobalUrlMapsUrlMap",
      "protocol": "REST",
      "method": "PUT",
      "entitypath": "{base_path}/{version}/projects/{pathv1}/global/urlMaps/{pathv2}?{query}",
      "requestSchema": "schema.json",
      "responseSchema": "schema.json",
      "timeout": 0,
      "sendEmpty": false,
      "requestDatatype": "JSON",
      "responseDatatype": "JSON",
      "headers": {},
      "responseObjects": [
        {
          "type": "default",
          "key": "",
          "mockFile": "mockdatafiles/putProjectGlobalUrlMapsUrlMap-default.json"
        }
      ]
    },
    {
      "name": "postProjectGlobalUrlMapsUrlMapInvalidateCache",
      "protocol": "REST",
      "method": "POST",
      "entitypath": "{base_path}/{version}/projects/{pathv1}/global/urlMaps/{pathv2}/invalidateCache?{query}",
      "requestSchema": "schema.json",
      "responseSchema": "schema.json",
      "timeout": 0,
      "sendEmpty": false,
      "requestDatatype": "JSON",
      "responseDatatype": "JSON",
      "headers": {},
      "responseObjects": [
        {
          "type": "default",
          "key": "",
          "mockFile": "mockdatafiles/postProjectGlobalUrlMapsUrlMapInvalidateCache-default.json"
        }
      ]
    },
    {
      "name": "postProjectGlobalUrlMapsUrlMapValidate",
      "protocol": "REST",
      "method": "POST",
      "entitypath": "{base_path}/{version}/projects/{pathv1}/global/urlMaps/{pathv2}/validate?{query}",
      "requestSchema": "schema.json",
      "responseSchema": "schema.json",
      "timeout": 0,
      "sendEmpty": false,
      "requestDatatype": "JSON",
      "responseDatatype": "JSON",
      "headers": {},
      "responseObjects": [
        {
          "type": "default",
          "key": "",
          "mockFile": "mockdatafiles/postProjectGlobalUrlMapsUrlMapValidate-default.json"
        }
      ]
    }
  ]
}