{
  "id": "string",
  "kind": "compute#vmEndpointNatMappingsList",
  "nextPageToken": "string",
  "result": [
    {
      "instanceName": "string",
      "interfaceNatMappings": [
        {
          "drainNatIpPortRanges": [
            "string",
            "string",
            "string"
          ],
          "natIpPortRanges": [
            "string",
            "string"
          ],
          "numTotalDrainNatPorts": 2,
          "numTotalNatPorts": 8,
          "sourceAliasIpRange": "string",
          "sourceVirtualIp": "string"
        },
        {
          "drainNatIpPortRanges": [
            "string"
          ],
          "natIpPortRanges": [
            "string",
            "string",
            "string",
            "string",
            "string",
            "string"
          ],
          "numTotalDrainNatPorts": 7,
          "numTotalNatPorts": 2,
          "sourceAliasIpRange": "string",
          "sourceVirtualIp": "string"
        },
        {
          "drainNatIpPortRanges": [
            "string",
            "string",
            "string",
            "string"
          ],
          "natIpPortRanges": [
            "string",
            "string",
            "string",
            "string",
            "string",
            "string",
            "string",
            "string",
            "string"
          ],
          "numTotalDrainNatPorts": 6,
          "numTotalNatPorts": 1,
          "sourceAliasIpRange": "string",
          "sourceVirtualIp": "string"
        },
        {
          "drainNatIpPortRanges": [
            "string"
          ],
          "natIpPortRanges": [
            "string"
          ],
          "numTotalDrainNatPorts": 7,
          "numTotalNatPorts": 5,
          "sourceAliasIpRange": "string",
          "sourceVirtualIp": "string"
        },
        {
          "drainNatIpPortRanges": [
            "string",
            "string"
          ],
          "natIpPortRanges": [
            "string",
            "string",
            "string",
            "string",
            "string",
            "string",
            "string"
          ],
          "numTotalDrainNatPorts": 4,
          "numTotalNatPorts": 6,
          "sourceAliasIpRange": "string",
          "sourceVirtualIp": "string"
        },
        {
          "drainNatIpPortRanges": [
            "string",
            "string",
            "string",
            "string",
            "string",
            "string",
            "string"
          ],
          "natIpPortRanges": [
            "string",
            "string",
            "string",
            "string",
            "string"
          ],
          "numTotalDrainNatPorts": 5,
          "numTotalNatPorts": 7,
          "sourceAliasIpRange": "string",
          "sourceVirtualIp": "string"
        },
        {
          "drainNatIpPortRanges": [
            "string",
            "string"
          ],
          "natIpPortRanges": [
            "string",
            "string",
            "string",
            "string",
            "string",
            "string",
            "string",
            "string"
          ],
          "numTotalDrainNatPorts": 8,
          "numTotalNatPorts": 9,
          "sourceAliasIpRange": "string",
          "sourceVirtualIp": "string"
        },
        {
          "drainNatIpPortRanges": [
            "string",
            "string",
            "string",
            "string",
            "string",
            "string",
            "string",
            "string",
            "string"
          ],
          "natIpPortRanges": [
            "string",
            "string",
            "string",
            "string",
            "string",
            "string",
            "string",
            "string"
          ],
          "numTotalDrainNatPorts": 9,
          "numTotalNatPorts": 1,
          "sourceAliasIpRange": "string",
          "sourceVirtualIp": "string"
        },
        {
          "drainNatIpPortRanges": [
            "string",
            "string",
            "string",
            "string",
            "string",
            "string",
            "string"
          ],
          "natIpPortRanges": [
            "string",
            "string",
            "string",
            "string",
            "string",
            "string",
            "string"
          ],
          "numTotalDrainNatPorts": 5,
          "numTotalNatPorts": 8,
          "sourceAliasIpRange": "string",
          "sourceVirtualIp": "string"
        }
      ]
    },
    {
      "instanceName": "string",
      "interfaceNatMappings": [
        {
          "drainNatIpPortRanges": [
            "string",
            "string",
            "string",
            "string",
            "string",
            "string",
            "string",
            "string",
            "string"
          ],
          "natIpPortRanges": [
            "string",
            "string",
            "string",
            "string",
            "string",
            "string",
            "string",
            "string",
            "string",
            "string"
          ],
          "numTotalDrainNatPorts": 8,
          "numTotalNatPorts": 1,
          "sourceAliasIpRange": "string",
          "sourceVirtualIp": "string"
        },
        {
          "drainNatIpPortRanges": [
            "string"
          ],
          "natIpPortRanges": [
            "string",
            "string",
            "string",
            "string",
            "string",
            "string",
            "string",
            "string",
            "string",
            "string"
          ],
          "numTotalDrainNatPorts": 1,
          "numTotalNatPorts": 1,
          "sourceAliasIpRange": "string",
          "sourceVirtualIp": "string"
        },
        {
          "drainNatIpPortRanges": [
            "string",
            "string",
            "string",
            "string",
            "string",
            "string",
            "string",
            "string",
            "string",
            "string"
          ],
          "natIpPortRanges": [
            "string",
            "string",
            "string",
            "string",
            "string",
            "string",
            "string",
            "string",
            "string"
          ],
          "numTotalDrainNatPorts": 7,
          "numTotalNatPorts": 4,
          "sourceAliasIpRange": "string",
          "sourceVirtualIp": "string"
        },
        {
          "drainNatIpPortRanges": [
            "string",
            "string",
            "string",
            "string",
            "string"
          ],
          "natIpPortRanges": [
            "string",
            "string",
            "string",
            "string",
            "string",
            "string",
            "string",
            "string",
            "string",
            "string"
          ],
          "numTotalDrainNatPorts": 3,
          "numTotalNatPorts": 9,
          "sourceAliasIpRange": "string",
          "sourceVirtualIp": "string"
        },
        {
          "drainNatIpPortRanges": [
            "string",
            "string",
            "string",
            "string",
            "string",
            "string",
            "string",
            "string"
          ],
          "natIpPortRanges": [
            "string",
            "string"
          ],
          "numTotalDrainNatPorts": 2,
          "numTotalNatPorts": 4,
          "sourceAliasIpRange": "string",
          "sourceVirtualIp": "string"
        },
        {
          "drainNatIpPortRanges": [
            "string",
            "string",
            "string",
            "string",
            "string",
            "string",
            "string",
            "string"
          ],
          "natIpPortRanges": [
            "string",
            "string",
            "string",
            "string",
            "string",
            "string"
          ],
          "numTotalDrainNatPorts": 1,
          "numTotalNatPorts": 10,
          "sourceAliasIpRange": "string",
          "sourceVirtualIp": "string"
        }
      ]
    },
    {
      "instanceName": "string",
      "interfaceNatMappings": [
        {
          "drainNatIpPortRanges": [
            "string",
            "string",
            "string",
            "string",
            "string"
          ],
          "natIpPortRanges": [
            "string",
            "string"
          ],
          "numTotalDrainNatPorts": 5,
          "numTotalNatPorts": 3,
          "sourceAliasIpRange": "string",
          "sourceVirtualIp": "string"
        }
      ]
    },
    {
      "instanceName": "string",
      "interfaceNatMappings": [
        {
          "drainNatIpPortRanges": [
            "string",
            "string",
            "string",
            "string",
            "string",
            "string"
          ],
          "natIpPortRanges": [
            "string",
            "string",
            "string",
            "string",
            "string"
          ],
          "numTotalDrainNatPorts": 4,
          "numTotalNatPorts": 7,
          "sourceAliasIpRange": "string",
          "sourceVirtualIp": "string"
        },
        {
          "drainNatIpPortRanges": [
            "string",
            "string",
            "string",
            "string",
            "string",
            "string",
            "string",
            "string",
            "string"
          ],
          "natIpPortRanges": [
            "string",
            "string",
            "string",
            "string",
            "string",
            "string",
            "string",
            "string"
          ],
          "numTotalDrainNatPorts": 1,
          "numTotalNatPorts": 10,
          "sourceAliasIpRange": "string",
          "sourceVirtualIp": "string"
        },
        {
          "drainNatIpPortRanges": [
            "string",
            "string",
            "string",
            "string"
          ],
          "natIpPortRanges": [
            "string",
            "string",
            "string",
            "string",
            "string",
            "string",
            "string",
            "string",
            "string"
          ],
          "numTotalDrainNatPorts": 9,
          "numTotalNatPorts": 5,
          "sourceAliasIpRange": "string",
          "sourceVirtualIp": "string"
        },
        {
          "drainNatIpPortRanges": [
            "string",
            "string",
            "string",
            "string",
            "string",
            "string"
          ],
          "natIpPortRanges": [
            "string",
            "string",
            "string",
            "string",
            "string",
            "string",
            "string",
            "string",
            "string",
            "string"
          ],
          "numTotalDrainNatPorts": 5,
          "numTotalNatPorts": 4,
          "sourceAliasIpRange": "string",
          "sourceVirtualIp": "string"
        },
        {
          "drainNatIpPortRanges": [
            "string",
            "string",
            "string"
          ],
          "natIpPortRanges": [
            "string",
            "string",
            "string",
            "string"
          ],
          "numTotalDrainNatPorts": 7,
          "numTotalNatPorts": 10,
          "sourceAliasIpRange": "string",
          "sourceVirtualIp": "string"
        },
        {
          "drainNatIpPortRanges": [
            "string",
            "string",
            "string",
            "string",
            "string",
            "string",
            "string",
            "string"
          ],
          "natIpPortRanges": [
            "string",
            "string",
            "string"
          ],
          "numTotalDrainNatPorts": 5,
          "numTotalNatPorts": 6,
          "sourceAliasIpRange": "string",
          "sourceVirtualIp": "string"
        },
        {
          "drainNatIpPortRanges": [
            "string",
            "string",
            "string",
            "string"
          ],
          "natIpPortRanges": [
            "string",
            "string",
            "string",
            "string",
            "string",
            "string",
            "string"
          ],
          "numTotalDrainNatPorts": 3,
          "numTotalNatPorts": 5,
          "sourceAliasIpRange": "string",
          "sourceVirtualIp": "string"
        },
        {
          "drainNatIpPortRanges": [
            "string"
          ],
          "natIpPortRanges": [
            "string",
            "string",
            "string",
            "string",
            "string",
            "string"
          ],
          "numTotalDrainNatPorts": 3,
          "numTotalNatPorts": 6,
          "sourceAliasIpRange": "string",
          "sourceVirtualIp": "string"
        },
        {
          "drainNatIpPortRanges": [
            "string",
            "string"
          ],
          "natIpPortRanges": [
            "string",
            "string",
            "string",
            "string",
            "string",
            "string",
            "string",
            "string",
            "string",
            "string"
          ],
          "numTotalDrainNatPorts": 2,
          "numTotalNatPorts": 7,
          "sourceAliasIpRange": "string",
          "sourceVirtualIp": "string"
        },
        {
          "drainNatIpPortRanges": [
            "string",
            "string",
            "string",
            "string",
            "string",
            "string",
            "string",
            "string",
            "string"
          ],
          "natIpPortRanges": [
            "string",
            "string",
            "string"
          ],
          "numTotalDrainNatPorts": 4,
          "numTotalNatPorts": 5,
          "sourceAliasIpRange": "string",
          "sourceVirtualIp": "string"
        }
      ]
    },
    {
      "instanceName": "string",
      "interfaceNatMappings": [
        {
          "drainNatIpPortRanges": [
            "string",
            "string",
            "string",
            "string",
            "string",
            "string",
            "string",
            "string",
            "string",
            "string"
          ],
          "natIpPortRanges": [
            "string"
          ],
          "numTotalDrainNatPorts": 2,
          "numTotalNatPorts": 3,
          "sourceAliasIpRange": "string",
          "sourceVirtualIp": "string"
        }
      ]
    },
    {
      "instanceName": "string",
      "interfaceNatMappings": [
        {
          "drainNatIpPortRanges": [
            "string",
            "string",
            "string",
            "string",
            "string",
            "string",
            "string",
            "string",
            "string",
            "string"
          ],
          "natIpPortRanges": [
            "string"
          ],
          "numTotalDrainNatPorts": 4,
          "numTotalNatPorts": 5,
          "sourceAliasIpRange": "string",
          "sourceVirtualIp": "string"
        },
        {
          "drainNatIpPortRanges": [
            "string",
            "string",
            "string"
          ],
          "natIpPortRanges": [
            "string",
            "string",
            "string",
            "string",
            "string"
          ],
          "numTotalDrainNatPorts": 9,
          "numTotalNatPorts": 8,
          "sourceAliasIpRange": "string",
          "sourceVirtualIp": "string"
        },
        {
          "drainNatIpPortRanges": [
            "string",
            "string",
            "string"
          ],
          "natIpPortRanges": [
            "string",
            "string",
            "string",
            "string",
            "string",
            "string",
            "string",
            "string",
            "string",
            "string"
          ],
          "numTotalDrainNatPorts": 9,
          "numTotalNatPorts": 8,
          "sourceAliasIpRange": "string",
          "sourceVirtualIp": "string"
        },
        {
          "drainNatIpPortRanges": [
            "string",
            "string",
            "string",
            "string",
            "string",
            "string",
            "string"
          ],
          "natIpPortRanges": [
            "string",
            "string",
            "string",
            "string",
            "string",
            "string",
            "string",
            "string",
            "string",
            "string"
          ],
          "numTotalDrainNatPorts": 10,
          "numTotalNatPorts": 7,
          "sourceAliasIpRange": "string",
          "sourceVirtualIp": "string"
        },
        {
          "drainNatIpPortRanges": [
            "string",
            "string",
            "string",
            "string",
            "string",
            "string"
          ],
          "natIpPortRanges": [
            "string",
            "string",
            "string",
            "string",
            "string",
            "string"
          ],
          "numTotalDrainNatPorts": 2,
          "numTotalNatPorts": 9,
          "sourceAliasIpRange": "string",
          "sourceVirtualIp": "string"
        },
        {
          "drainNatIpPortRanges": [
            "string"
          ],
          "natIpPortRanges": [
            "string",
            "string",
            "string",
            "string",
            "string",
            "string"
          ],
          "numTotalDrainNatPorts": 8,
          "numTotalNatPorts": 10,
          "sourceAliasIpRange": "string",
          "sourceVirtualIp": "string"
        },
        {
          "drainNatIpPortRanges": [
            "string"
          ],
          "natIpPortRanges": [
            "string",
            "string",
            "string",
            "string",
            "string",
            "string",
            "string",
            "string",
            "string"
          ],
          "numTotalDrainNatPorts": 6,
          "numTotalNatPorts": 10,
          "sourceAliasIpRange": "string",
          "sourceVirtualIp": "string"
        },
        {
          "drainNatIpPortRanges": [
            "string"
          ],
          "natIpPortRanges": [
            "string",
            "string",
            "string",
            "string",
            "string",
            "string",
            "string",
            "string",
            "string"
          ],
          "numTotalDrainNatPorts": 8,
          "numTotalNatPorts": 6,
          "sourceAliasIpRange": "string",
          "sourceVirtualIp": "string"
        },
        {
          "drainNatIpPortRanges": [
            "string",
            "string",
            "string",
            "string",
            "string",
            "string"
          ],
          "natIpPortRanges": [
            "string",
            "string",
            "string",
            "string"
          ],
          "numTotalDrainNatPorts": 7,
          "numTotalNatPorts": 5,
          "sourceAliasIpRange": "string",
          "sourceVirtualIp": "string"
        },
        {
          "drainNatIpPortRanges": [
            "string",
            "string",
            "string",
            "string",
            "string",
            "string",
            "string",
            "string"
          ],
          "natIpPortRanges": [
            "string",
            "string",
            "string"
          ],
          "numTotalDrainNatPorts": 10,
          "numTotalNatPorts": 10,
          "sourceAliasIpRange": "string",
          "sourceVirtualIp": "string"
        }
      ]
    },
    {
      "instanceName": "string",
      "interfaceNatMappings": [
        {
          "drainNatIpPortRanges": [
            "string",
            "string",
            "string",
            "string",
            "string",
            "string",
            "string",
            "string"
          ],
          "natIpPortRanges": [
            "string"
          ],
          "numTotalDrainNatPorts": 7,
          "numTotalNatPorts": 1,
          "sourceAliasIpRange": "string",
          "sourceVirtualIp": "string"
        },
        {
          "drainNatIpPortRanges": [
            "string",
            "string",
            "string"
          ],
          "natIpPortRanges": [
            "string",
            "string",
            "string",
            "string",
            "string",
            "string",
            "string"
          ],
          "numTotalDrainNatPorts": 6,
          "numTotalNatPorts": 9,
          "sourceAliasIpRange": "string",
          "sourceVirtualIp": "string"
        },
        {
          "drainNatIpPortRanges": [
            "string",
            "string",
            "string",
            "string"
          ],
          "natIpPortRanges": [
            "string",
            "string",
            "string",
            "string",
            "string",
            "string",
            "string"
          ],
          "numTotalDrainNatPorts": 5,
          "numTotalNatPorts": 4,
          "sourceAliasIpRange": "string",
          "sourceVirtualIp": "string"
        },
        {
          "drainNatIpPortRanges": [
            "string",
            "string",
            "string",
            "string"
          ],
          "natIpPortRanges": [
            "string",
            "string",
            "string",
            "string",
            "string",
            "string"
          ],
          "numTotalDrainNatPorts": 9,
          "numTotalNatPorts": 10,
          "sourceAliasIpRange": "string",
          "sourceVirtualIp": "string"
        },
        {
          "drainNatIpPortRanges": [
            "string",
            "string",
            "string",
            "string",
            "string",
            "string",
            "string",
            "string"
          ],
          "natIpPortRanges": [
            "string",
            "string",
            "string",
            "string",
            "string",
            "string"
          ],
          "numTotalDrainNatPorts": 4,
          "numTotalNatPorts": 8,
          "sourceAliasIpRange": "string",
          "sourceVirtualIp": "string"
        },
        {
          "drainNatIpPortRanges": [
            "string",
            "string"
          ],
          "natIpPortRanges": [
            "string",
            "string",
            "string",
            "string",
            "string",
            "string",
            "string",
            "string",
            "string",
            "string"
          ],
          "numTotalDrainNatPorts": 6,
          "numTotalNatPorts": 6,
          "sourceAliasIpRange": "string",
          "sourceVirtualIp": "string"
        },
        {
          "drainNatIpPortRanges": [
            "string",
            "string",
            "string",
            "string",
            "string",
            "string",
            "string",
            "string",
            "string"
          ],
          "natIpPortRanges": [
            "string",
            "string",
            "string",
            "string",
            "string",
            "string",
            "string",
            "string"
          ],
          "numTotalDrainNatPorts": 8,
          "numTotalNatPorts": 1,
          "sourceAliasIpRange": "string",
          "sourceVirtualIp": "string"
        },
        {
          "drainNatIpPortRanges": [
            "string",
            "string"
          ],
          "natIpPortRanges": [
            "string",
            "string",
            "string",
            "string",
            "string",
            "string",
            "string"
          ],
          "numTotalDrainNatPorts": 2,
          "numTotalNatPorts": 5,
          "sourceAliasIpRange": "string",
          "sourceVirtualIp": "string"
        },
        {
          "drainNatIpPortRanges": [
            "string",
            "string",
            "string",
            "string",
            "string",
            "string",
            "string",
            "string"
          ],
          "natIpPortRanges": [
            "string",
            "string",
            "string",
            "string",
            "string",
            "string"
          ],
          "numTotalDrainNatPorts": 9,
          "numTotalNatPorts": 9,
          "sourceAliasIpRange": "string",
          "sourceVirtualIp": "string"
        },
        {
          "drainNatIpPortRanges": [
            "string"
          ],
          "natIpPortRanges": [
            "string",
            "string",
            "string",
            "string",
            "string",
            "string"
          ],
          "numTotalDrainNatPorts": 2,
          "numTotalNatPorts": 7,
          "sourceAliasIpRange": "string",
          "sourceVirtualIp": "string"
        }
      ]
    },
    {
      "instanceName": "string",
      "interfaceNatMappings": [
        {
          "drainNatIpPortRanges": [
            "string",
            "string",
            "string",
            "string"
          ],
          "natIpPortRanges": [
            "string",
            "string",
            "string",
            "string",
            "string"
          ],
          "numTotalDrainNatPorts": 7,
          "numTotalNatPorts": 1,
          "sourceAliasIpRange": "string",
          "sourceVirtualIp": "string"
        },
        {
          "drainNatIpPortRanges": [
            "string",
            "string",
            "string",
            "string",
            "string",
            "string",
            "string"
          ],
          "natIpPortRanges": [
            "string",
            "string",
            "string",
            "string",
            "string"
          ],
          "numTotalDrainNatPorts": 3,
          "numTotalNatPorts": 10,
          "sourceAliasIpRange": "string",
          "sourceVirtualIp": "string"
        },
        {
          "drainNatIpPortRanges": [
            "string",
            "string",
            "string",
            "string",
            "string",
            "string",
            "string",
            "string",
            "string",
            "string"
          ],
          "natIpPortRanges": [
            "string",
            "string",
            "string",
            "string",
            "string",
            "string",
            "string",
            "string"
          ],
          "numTotalDrainNatPorts": 9,
          "numTotalNatPorts": 8,
          "sourceAliasIpRange": "string",
          "sourceVirtualIp": "string"
        },
        {
          "drainNatIpPortRanges": [
            "string",
            "string",
            "string",
            "string",
            "string",
            "string",
            "string",
            "string",
            "string"
          ],
          "natIpPortRanges": [
            "string",
            "string"
          ],
          "numTotalDrainNatPorts": 7,
          "numTotalNatPorts": 4,
          "sourceAliasIpRange": "string",
          "sourceVirtualIp": "string"
        },
        {
          "drainNatIpPortRanges": [
            "string",
            "string",
            "string",
            "string"
          ],
          "natIpPortRanges": [
            "string"
          ],
          "numTotalDrainNatPorts": 8,
          "numTotalNatPorts": 9,
          "sourceAliasIpRange": "string",
          "sourceVirtualIp": "string"
        },
        {
          "drainNatIpPortRanges": [
            "string",
            "string",
            "string",
            "string",
            "string",
            "string",
            "string",
            "string",
            "string",
            "string"
          ],
          "natIpPortRanges": [
            "string",
            "string",
            "string",
            "string",
            "string"
          ],
          "numTotalDrainNatPorts": 10,
          "numTotalNatPorts": 4,
          "sourceAliasIpRange": "string",
          "sourceVirtualIp": "string"
        }
      ]
    },
    {
      "instanceName": "string",
      "interfaceNatMappings": [
        {
          "drainNatIpPortRanges": [
            "string",
            "string",
            "string",
            "string",
            "string",
            "string",
            "string",
            "string"
          ],
          "natIpPortRanges": [
            "string",
            "string",
            "string",
            "string",
            "string",
            "string",
            "string",
            "string",
            "string",
            "string"
          ],
          "numTotalDrainNatPorts": 7,
          "numTotalNatPorts": 4,
          "sourceAliasIpRange": "string",
          "sourceVirtualIp": "string"
        },
        {
          "drainNatIpPortRanges": [
            "string",
            "string",
            "string",
            "string",
            "string",
            "string",
            "string",
            "string",
            "string"
          ],
          "natIpPortRanges": [
            "string",
            "string",
            "string",
            "string",
            "string",
            "string",
            "string",
            "string",
            "string",
            "string"
          ],
          "numTotalDrainNatPorts": 9,
          "numTotalNatPorts": 3,
          "sourceAliasIpRange": "string",
          "sourceVirtualIp": "string"
        },
        {
          "drainNatIpPortRanges": [
            "string"
          ],
          "natIpPortRanges": [
            "string",
            "string",
            "string",
            "string",
            "string",
            "string",
            "string",
            "string",
            "string"
          ],
          "numTotalDrainNatPorts": 10,
          "numTotalNatPorts": 7,
          "sourceAliasIpRange": "string",
          "sourceVirtualIp": "string"
        },
        {
          "drainNatIpPortRanges": [
            "string",
            "string",
            "string",
            "string",
            "string",
            "string"
          ],
          "natIpPortRanges": [
            "string",
            "string",
            "string",
            "string",
            "string",
            "string",
            "string",
            "string",
            "string",
            "string"
          ],
          "numTotalDrainNatPorts": 8,
          "numTotalNatPorts": 9,
          "sourceAliasIpRange": "string",
          "sourceVirtualIp": "string"
        },
        {
          "drainNatIpPortRanges": [
            "string",
            "string",
            "string",
            "string",
            "string",
            "string",
            "string",
            "string",
            "string"
          ],
          "natIpPortRanges": [
            "string",
            "string",
            "string",
            "string"
          ],
          "numTotalDrainNatPorts": 1,
          "numTotalNatPorts": 9,
          "sourceAliasIpRange": "string",
          "sourceVirtualIp": "string"
        },
        {
          "drainNatIpPortRanges": [
            "string"
          ],
          "natIpPortRanges": [
            "string",
            "string",
            "string",
            "string",
            "string",
            "string"
          ],
          "numTotalDrainNatPorts": 2,
          "numTotalNatPorts": 1,
          "sourceAliasIpRange": "string",
          "sourceVirtualIp": "string"
        },
        {
          "drainNatIpPortRanges": [
            "string",
            "string",
            "string",
            "string",
            "string",
            "string",
            "string"
          ],
          "natIpPortRanges": [
            "string",
            "string",
            "string"
          ],
          "numTotalDrainNatPorts": 2,
          "numTotalNatPorts": 9,
          "sourceAliasIpRange": "string",
          "sourceVirtualIp": "string"
        }
      ]
    }
  ],
  "selfLink": "string",
  "warning": {
    "code": "NO_RESULTS_ON_PAGE",
    "data": [
      {
        "key": "string",
        "value": "string"
      },
      {
        "key": "string",
        "value": "string"
      },
      {
        "key": "string",
        "value": "string"
      }
    ],
    "message": "string"
  }
}