{
  "id": "string",
  "items": [
    {
      "autoscalingPolicy": {
        "coolDownPeriodSec": 5,
        "cpuUtilization": {
          "utilizationTarget": 6
        },
        "customMetricUtilizations": [
          {
            "metric": "string",
            "utilizationTarget": 5,
            "utilizationTargetType": "DELTA_PER_SECOND"
          }
        ],
        "loadBalancingUtilization": {
          "utilizationTarget": 4
        },
        "maxNumReplicas": 6,
        "minNumReplicas": 9,
        "mode": "OFF",
        "scaleInControl": {
          "maxScaledInReplicas": {
            "calculated": 4,
            "fixed": 1,
            "percent": 2
          },
          "timeWindowSec": 10
        }
      },
      "creationTimestamp": "string",
      "description": "string",
      "id": "string",
      "kind": "compute#autoscaler",
      "name": "string",
      "recommendedSize": 5,
      "region": "string",
      "selfLink": "string",
      "status": "PENDING",
      "statusDetails": [
        {
          "message": "string",
          "type": "MISSING_LOAD_BALANCING_DATA_POINTS"
        },
        {
          "message": "string",
          "type": "MIN_EQUALS_MAX"
        }
      ],
      "target": "string",
      "zone": "string"
    },
    {
      "autoscalingPolicy": {
        "coolDownPeriodSec": 5,
        "cpuUtilization": {
          "utilizationTarget": 1
        },
        "customMetricUtilizations": [
          {
            "metric": "string",
            "utilizationTarget": 7,
            "utilizationTargetType": "GAUGE"
          },
          {
            "metric": "string",
            "utilizationTarget": 6,
            "utilizationTargetType": "DELTA_PER_MINUTE"
          },
          {
            "metric": "string",
            "utilizationTarget": 1,
            "utilizationTargetType": "GAUGE"
          },
          {
            "metric": "string",
            "utilizationTarget": 7,
            "utilizationTargetType": "DELTA_PER_SECOND"
          },
          {
            "metric": "string",
            "utilizationTarget": 9,
            "utilizationTargetType": "GAUGE"
          },
          {
            "metric": "string",
            "utilizationTarget": 3,
            "utilizationTargetType": "GAUGE"
          }
        ],
        "loadBalancingUtilization": {
          "utilizationTarget": 5
        },
        "maxNumReplicas": 3,
        "minNumReplicas": 9,
        "mode": "ONLY_UP",
        "scaleInControl": {
          "maxScaledInReplicas": {
            "calculated": 7,
            "fixed": 8,
            "percent": 7
          },
          "timeWindowSec": 6
        }
      },
      "creationTimestamp": "string",
      "description": "string",
      "id": "string",
      "kind": "compute#autoscaler",
      "name": "string",
      "recommendedSize": 7,
      "region": "string",
      "selfLink": "string",
      "status": "DELETING",
      "statusDetails": [
        {
          "message": "string",
          "type": "MODE_ONLY_UP"
        },
        {
          "message": "string",
          "type": "MODE_OFF"
        },
        {
          "message": "string",
          "type": "MODE_OFF"
        },
        {
          "message": "string",
          "type": "MODE_OFF"
        },
        {
          "message": "string",
          "type": "NOT_ENOUGH_QUOTA_AVAILABLE"
        },
        {
          "message": "string",
          "type": "UNKNOWN"
        }
      ],
      "target": "string",
      "zone": "string"
    },
    {
      "autoscalingPolicy": {
        "coolDownPeriodSec": 4,
        "cpuUtilization": {
          "utilizationTarget": 1
        },
        "customMetricUtilizations": [
          {
            "metric": "string",
            "utilizationTarget": 9,
            "utilizationTargetType": "DELTA_PER_MINUTE"
          },
          {
            "metric": "string",
            "utilizationTarget": 5,
            "utilizationTargetType": "DELTA_PER_SECOND"
          },
          {
            "metric": "string",
            "utilizationTarget": 10,
            "utilizationTargetType": "DELTA_PER_MINUTE"
          },
          {
            "metric": "string",
            "utilizationTarget": 5,
            "utilizationTargetType": "DELTA_PER_MINUTE"
          },
          {
            "metric": "string",
            "utilizationTarget": 1,
            "utilizationTargetType": "DELTA_PER_MINUTE"
          },
          {
            "metric": "string",
            "utilizationTarget": 2,
            "utilizationTargetType": "GAUGE"
          },
          {
            "metric": "string",
            "utilizationTarget": 2,
            "utilizationTargetType": "DELTA_PER_MINUTE"
          }
        ],
        "loadBalancingUtilization": {
          "utilizationTarget": 10
        },
        "maxNumReplicas": 6,
        "minNumReplicas": 9,
        "mode": "ONLY_SCALE_OUT",
        "scaleInControl": {
          "maxScaledInReplicas": {
            "calculated": 3,
            "fixed": 4,
            "percent": 5
          },
          "timeWindowSec": 8
        }
      },
      "creationTimestamp": "string",
      "description": "string",
      "id": "string",
      "kind": "compute#autoscaler",
      "name": "string",
      "recommendedSize": 7,
      "region": "string",
      "selfLink": "string",
      "status": "DELETING",
      "statusDetails": [
        {
          "message": "string",
          "type": "MODE_ONLY_UP"
        },
        {
          "message": "string",
          "type": "SCALING_TARGET_DOES_NOT_EXIST"
        },
        {
          "message": "string",
          "type": "MISSING_CUSTOM_METRIC_DATA_POINTS"
        },
        {
          "message": "string",
          "type": "MODE_ONLY_UP"
        },
        {
          "message": "string",
          "type": "ALL_INSTANCES_UNHEALTHY"
        }
      ],
      "target": "string",
      "zone": "string"
    },
    {
      "autoscalingPolicy": {
        "coolDownPeriodSec": 1,
        "cpuUtilization": {
          "utilizationTarget": 1
        },
        "customMetricUtilizations": [
          {
            "metric": "string",
            "utilizationTarget": 7,
            "utilizationTargetType": "GAUGE"
          },
          {
            "metric": "string",
            "utilizationTarget": 7,
            "utilizationTargetType": "GAUGE"
          },
          {
            "metric": "string",
            "utilizationTarget": 7,
            "utilizationTargetType": "DELTA_PER_SECOND"
          },
          {
            "metric": "string",
            "utilizationTarget": 1,
            "utilizationTargetType": "DELTA_PER_MINUTE"
          },
          {
            "metric": "string",
            "utilizationTarget": 2,
            "utilizationTargetType": "DELTA_PER_MINUTE"
          },
          {
            "metric": "string",
            "utilizationTarget": 2,
            "utilizationTargetType": "DELTA_PER_SECOND"
          },
          {
            "metric": "string",
            "utilizationTarget": 4,
            "utilizationTargetType": "GAUGE"
          },
          {
            "metric": "string",
            "utilizationTarget": 8,
            "utilizationTargetType": "DELTA_PER_MINUTE"
          },
          {
            "metric": "string",
            "utilizationTarget": 3,
            "utilizationTargetType": "DELTA_PER_SECOND"
          },
          {
            "metric": "string",
            "utilizationTarget": 10,
            "utilizationTargetType": "GAUGE"
          }
        ],
        "loadBalancingUtilization": {
          "utilizationTarget": 6
        },
        "maxNumReplicas": 7,
        "minNumReplicas": 7,
        "mode": "ON",
        "scaleInControl": {
          "maxScaledInReplicas": {
            "calculated": 7,
            "fixed": 5,
            "percent": 6
          },
          "timeWindowSec": 6
        }
      },
      "creationTimestamp": "string",
      "description": "string",
      "id": "string",
      "kind": "compute#autoscaler",
      "name": "string",
      "recommendedSize": 3,
      "region": "string",
      "selfLink": "string",
      "status": "DELETING",
      "statusDetails": [
        {
          "message": "string",
          "type": "UNSUPPORTED_MAX_RATE_LOAD_BALANCING_CONFIGURATION"
        },
        {
          "message": "string",
          "type": "ALL_INSTANCES_UNHEALTHY"
        },
        {
          "message": "string",
          "type": "NOT_ENOUGH_QUOTA_AVAILABLE"
        },
        {
          "message": "string",
          "type": "CUSTOM_METRIC_DATA_POINTS_TOO_SPARSE"
        }
      ],
      "target": "string",
      "zone": "string"
    },
    {
      "autoscalingPolicy": {
        "coolDownPeriodSec": 4,
        "cpuUtilization": {
          "utilizationTarget": 5
        },
        "customMetricUtilizations": [
          {
            "metric": "string",
            "utilizationTarget": 8,
            "utilizationTargetType": "GAUGE"
          },
          {
            "metric": "string",
            "utilizationTarget": 5,
            "utilizationTargetType": "DELTA_PER_MINUTE"
          },
          {
            "metric": "string",
            "utilizationTarget": 10,
            "utilizationTargetType": "DELTA_PER_MINUTE"
          },
          {
            "metric": "string",
            "utilizationTarget": 8,
            "utilizationTargetType": "DELTA_PER_MINUTE"
          }
        ],
        "loadBalancingUtilization": {
          "utilizationTarget": 6
        },
        "maxNumReplicas": 1,
        "minNumReplicas": 7,
        "mode": "ONLY_SCALE_OUT",
        "scaleInControl": {
          "maxScaledInReplicas": {
            "calculated": 1,
            "fixed": 4,
            "percent": 7
          },
          "timeWindowSec": 10
        }
      },
      "creationTimestamp": "string",
      "description": "string",
      "id": "string",
      "kind": "compute#autoscaler",
      "name": "string",
      "recommendedSize": 3,
      "region": "string",
      "selfLink": "string",
      "status": "ACTIVE",
      "statusDetails": [
        {
          "message": "string",
          "type": "MIN_EQUALS_MAX"
        },
        {
          "message": "string",
          "type": "MODE_OFF"
        }
      ],
      "target": "string",
      "zone": "string"
    },
    {
      "autoscalingPolicy": {
        "coolDownPeriodSec": 4,
        "cpuUtilization": {
          "utilizationTarget": 2
        },
        "customMetricUtilizations": [
          {
            "metric": "string",
            "utilizationTarget": 1,
            "utilizationTargetType": "DELTA_PER_SECOND"
          },
          {
            "metric": "string",
            "utilizationTarget": 10,
            "utilizationTargetType": "GAUGE"
          },
          {
            "metric": "string",
            "utilizationTarget": 9,
            "utilizationTargetType": "DELTA_PER_MINUTE"
          },
          {
            "metric": "string",
            "utilizationTarget": 4,
            "utilizationTargetType": "GAUGE"
          },
          {
            "metric": "string",
            "utilizationTarget": 4,
            "utilizationTargetType": "DELTA_PER_MINUTE"
          },
          {
            "metric": "string",
            "utilizationTarget": 2,
            "utilizationTargetType": "DELTA_PER_SECOND"
          },
          {
            "metric": "string",
            "utilizationTarget": 8,
            "utilizationTargetType": "DELTA_PER_MINUTE"
          },
          {
            "metric": "string",
            "utilizationTarget": 3,
            "utilizationTargetType": "DELTA_PER_MINUTE"
          }
        ],
        "loadBalancingUtilization": {
          "utilizationTarget": 8
        },
        "maxNumReplicas": 9,
        "minNumReplicas": 6,
        "mode": "ONLY_SCALE_OUT",
        "scaleInControl": {
          "maxScaledInReplicas": {
            "calculated": 6,
            "fixed": 6,
            "percent": 8
          },
          "timeWindowSec": 8
        }
      },
      "creationTimestamp": "string",
      "description": "string",
      "id": "string",
      "kind": "compute#autoscaler",
      "name": "string",
      "recommendedSize": 8,
      "region": "string",
      "selfLink": "string",
      "status": "PENDING",
      "statusDetails": [
        {
          "message": "string",
          "type": "UNSUPPORTED_MAX_RATE_LOAD_BALANCING_CONFIGURATION"
        },
        {
          "message": "string",
          "type": "ALL_INSTANCES_UNHEALTHY"
        }
      ],
      "target": "string",
      "zone": "string"
    },
    {
      "autoscalingPolicy": {
        "coolDownPeriodSec": 7,
        "cpuUtilization": {
          "utilizationTarget": 9
        },
        "customMetricUtilizations": [
          {
            "metric": "string",
            "utilizationTarget": 9,
            "utilizationTargetType": "DELTA_PER_SECOND"
          },
          {
            "metric": "string",
            "utilizationTarget": 2,
            "utilizationTargetType": "GAUGE"
          },
          {
            "metric": "string",
            "utilizationTarget": 8,
            "utilizationTargetType": "GAUGE"
          },
          {
            "metric": "string",
            "utilizationTarget": 4,
            "utilizationTargetType": "GAUGE"
          },
          {
            "metric": "string",
            "utilizationTarget": 8,
            "utilizationTargetType": "GAUGE"
          },
          {
            "metric": "string",
            "utilizationTarget": 6,
            "utilizationTargetType": "DELTA_PER_MINUTE"
          },
          {
            "metric": "string",
            "utilizationTarget": 3,
            "utilizationTargetType": "DELTA_PER_MINUTE"
          },
          {
            "metric": "string",
            "utilizationTarget": 6,
            "utilizationTargetType": "DELTA_PER_MINUTE"
          }
        ],
        "loadBalancingUtilization": {
          "utilizationTarget": 10
        },
        "maxNumReplicas": 8,
        "minNumReplicas": 3,
        "mode": "OFF",
        "scaleInControl": {
          "maxScaledInReplicas": {
            "calculated": 7,
            "fixed": 9,
            "percent": 6
          },
          "timeWindowSec": 4
        }
      },
      "creationTimestamp": "string",
      "description": "string",
      "id": "string",
      "kind": "compute#autoscaler",
      "name": "string",
      "recommendedSize": 5,
      "region": "string",
      "selfLink": "string",
      "status": "PENDING",
      "statusDetails": [
        {
          "message": "string",
          "type": "CUSTOM_METRIC_DATA_POINTS_TOO_SPARSE"
        },
        {
          "message": "string",
          "type": "UNKNOWN"
        },
        {
          "message": "string",
          "type": "MODE_ONLY_SCALE_OUT"
        },
        {
          "message": "string",
          "type": "BACKEND_SERVICE_DOES_NOT_EXIST"
        },
        {
          "message": "string",
          "type": "MISSING_CUSTOM_METRIC_DATA_POINTS"
        }
      ],
      "target": "string",
      "zone": "string"
    },
    {
      "autoscalingPolicy": {
        "coolDownPeriodSec": 5,
        "cpuUtilization": {
          "utilizationTarget": 10
        },
        "customMetricUtilizations": [
          {
            "metric": "string",
            "utilizationTarget": 5,
            "utilizationTargetType": "DELTA_PER_MINUTE"
          },
          {
            "metric": "string",
            "utilizationTarget": 7,
            "utilizationTargetType": "GAUGE"
          }
        ],
        "loadBalancingUtilization": {
          "utilizationTarget": 2
        },
        "maxNumReplicas": 3,
        "minNumReplicas": 3,
        "mode": "ONLY_SCALE_OUT",
        "scaleInControl": {
          "maxScaledInReplicas": {
            "calculated": 9,
            "fixed": 3,
            "percent": 5
          },
          "timeWindowSec": 3
        }
      },
      "creationTimestamp": "string",
      "description": "string",
      "id": "string",
      "kind": "compute#autoscaler",
      "name": "string",
      "recommendedSize": 8,
      "region": "string",
      "selfLink": "string",
      "status": "ACTIVE",
      "statusDetails": [
        {
          "message": "string",
          "type": "ZONE_RESOURCE_STOCKOUT"
        },
        {
          "message": "string",
          "type": "MISSING_CUSTOM_METRIC_DATA_POINTS"
        },
        {
          "message": "string",
          "type": "MISSING_CUSTOM_METRIC_DATA_POINTS"
        },
        {
          "message": "string",
          "type": "UNKNOWN"
        },
        {
          "message": "string",
          "type": "MORE_THAN_ONE_BACKEND_SERVICE"
        },
        {
          "message": "string",
          "type": "CUSTOM_METRIC_INVALID"
        },
        {
          "message": "string",
          "type": "CUSTOM_METRIC_DATA_POINTS_TOO_SPARSE"
        },
        {
          "message": "string",
          "type": "UNSUPPORTED_MAX_RATE_LOAD_BALANCING_CONFIGURATION"
        },
        {
          "message": "string",
          "type": "BACKEND_SERVICE_DOES_NOT_EXIST"
        },
        {
          "message": "string",
          "type": "MISSING_CUSTOM_METRIC_DATA_POINTS"
        }
      ],
      "target": "string",
      "zone": "string"
    }
  ],
  "kind": "compute#regionAutoscalerList",
  "nextPageToken": "string",
  "selfLink": "string",
  "warning": {
    "code": "NEXT_HOP_INSTANCE_NOT_FOUND",
    "data": [
      {
        "key": "string",
        "value": "string"
      },
      {
        "key": "string",
        "value": "string"
      },
      {
        "key": "string",
        "value": "string"
      },
      {
        "key": "string",
        "value": "string"
      },
      {
        "key": "string",
        "value": "string"
      },
      {
        "key": "string",
        "value": "string"
      },
      {
        "key": "string",
        "value": "string"
      }
    ],
    "message": "string"
  }
}