{
  "actions": [
    {
      "name": "getProjectGlobalBackendBuckets",
      "protocol": "REST",
      "method": "GET",
      "entitypath": "{base_path}/{version}/projects/{pathv1}/global/backendBuckets?{query}",
      "requestSchema": "schema.json",
      "responseSchema": "schema.json",
      "timeout": 0,
      "sendEmpty": false,
      "sendGetBody": false,
      "requestDatatype": "JSON",
      "responseDatatype": "JSON",
      "headers": {},
      "responseObjects": [
        {
          "type": "default",
          "key": "",
          "mockFile": "mockdatafiles/getProjectGlobalBackendBuckets-default.json"
        }
      ]
    },
    {
      "name": "postProjectGlobalBackendBuckets",
      "protocol": "REST",
      "method": "POST",
      "entitypath": "{base_path}/{version}/projects/{pathv1}/global/backendBuckets?{query}",
      "requestSchema": "schema.json",
      "responseSchema": "schema.json",
      "timeout": 0,
      "sendEmpty": false,
      "requestDatatype": "JSON",
      "responseDatatype": "JSON",
      "headers": {},
      "responseObjects": [
        {
          "type": "default",
          "key": "",
          "mockFile": "mockdatafiles/postProjectGlobalBackendBuckets-default.json"
        }
      ]
    },
    {
      "name": "deleteProjectGlobalBackendBucketsBackendBucket",
      "protocol": "REST",
      "method": "DELETE",
      "entitypath": "{base_path}/{version}/projects/{pathv1}/global/backendBuckets/{pathv2}?{query}",
      "requestSchema": "schema.json",
      "responseSchema": "schema.json",
      "timeout": 0,
      "sendEmpty": false,
      "requestDatatype": "JSON",
      "responseDatatype": "JSON",
      "headers": {},
      "responseObjects": [
        {
          "type": "default",
          "key": "",
          "mockFile": "mockdatafiles/deleteProjectGlobalBackendBucketsBackendBucket-default.json"
        }
      ]
    },
    {
      "name": "getProjectGlobalBackendBucketsBackendBucket",
      "protocol": "REST",
      "method": "GET",
      "entitypath": "{base_path}/{version}/projects/{pathv1}/global/backendBuckets/{pathv2}?{query}",
      "requestSchema": "schema.json",
      "responseSchema": "schema.json",
      "timeout": 0,
      "sendEmpty": false,
      "sendGetBody": false,
      "requestDatatype": "JSON",
      "responseDatatype": "JSON",
      "headers": {},
      "responseObjects": [
        {
          "type": "default",
          "key": "",
          "mockFile": "mockdatafiles/getProjectGlobalBackendBucketsBackendBucket-default.json"
        }
      ]
    },
    {
      "name": "patchProjectGlobalBackendBucketsBackendBucket",
      "protocol": "REST",
      "method": "PATCH",
      "entitypath": "{base_path}/{version}/projects/{pathv1}/global/backendBuckets/{pathv2}?{query}",
      "requestSchema": "schema.json",
      "responseSchema": "schema.json",
      "timeout": 0,
      "sendEmpty": false,
      "requestDatatype": "JSON",
      "responseDatatype": "JSON",
      "headers": {},
      "responseObjects": [
        {
          "type": "default",
          "key": "",
          "mockFile": "mockdatafiles/patchProjectGlobalBackendBucketsBackendBucket-default.json"
        }
      ]
    },
    {
      "name": "putProjectGlobalBackendBucketsBackendBucket",
      "protocol": "REST",
      "method": "PUT",
      "entitypath": "{base_path}/{version}/projects/{pathv1}/global/backendBuckets/{pathv2}?{query}",
      "requestSchema": "schema.json",
      "responseSchema": "schema.json",
      "timeout": 0,
      "sendEmpty": false,
      "requestDatatype": "JSON",
      "responseDatatype": "JSON",
      "headers": {},
      "responseObjects": [
        {
          "type": "default",
          "key": "",
          "mockFile": "mockdatafiles/putProjectGlobalBackendBucketsBackendBucket-default.json"
        }
      ]
    },
    {
      "name": "postProjectGlobalBackendBucketsBackendBucketAddSignedUrlKey",
      "protocol": "REST",
      "method": "POST",
      "entitypath": "{base_path}/{version}/projects/{pathv1}/global/backendBuckets/{pathv2}/addSignedUrlKey?{query}",
      "requestSchema": "schema.json",
      "responseSchema": "schema.json",
      "timeout": 0,
      "sendEmpty": false,
      "requestDatatype": "JSON",
      "responseDatatype": "JSON",
      "headers": {},
      "responseObjects": [
        {
          "type": "default",
          "key": "",
          "mockFile": "mockdatafiles/postProjectGlobalBackendBucketsBackendBucketAddSignedUrlKey-default.json"
        }
      ]
    },
    {
      "name": "postProjectGlobalBackendBucketsBackendBucketDeleteSignedUrlKey",
      "protocol": "REST",
      "method": "POST",
      "entitypath": "{base_path}/{version}/projects/{pathv1}/global/backendBuckets/{pathv2}/deleteSignedUrlKey?{query}",
      "requestSchema": "schema.json",
      "responseSchema": "schema.json",
      "timeout": 0,
      "sendEmpty": false,
      "requestDatatype": "JSON",
      "responseDatatype": "JSON",
      "headers": {},
      "responseObjects": [
        {
          "type": "default",
          "key": "",
          "mockFile": "mockdatafiles/postProjectGlobalBackendBucketsBackendBucketDeleteSignedUrlKey-default.json"
        }
      ]
    }
  ]
}