{
  "id": "string",
  "items": [
    {
      "autoHealingPolicies": [
        {
          "healthCheck": "string",
          "initialDelaySec": 1
        },
        {
          "healthCheck": "string",
          "initialDelaySec": 9
        },
        {
          "healthCheck": "string",
          "initialDelaySec": 3
        },
        {
          "healthCheck": "string",
          "initialDelaySec": 4
        },
        {
          "healthCheck": "string",
          "initialDelaySec": 10
        },
        {
          "healthCheck": "string",
          "initialDelaySec": 5
        },
        {
          "healthCheck": "string",
          "initialDelaySec": 1
        },
        {
          "healthCheck": "string",
          "initialDelaySec": 3
        },
        {
          "healthCheck": "string",
          "initialDelaySec": 4
        },
        {
          "healthCheck": "string",
          "initialDelaySec": 3
        }
      ],
      "baseInstanceName": "string",
      "creationTimestamp": "string",
      "currentActions": {
        "abandoning": 3,
        "creating": 1,
        "creatingWithoutRetries": 6,
        "deleting": 1,
        "none": 8,
        "recreating": 5,
        "refreshing": 1,
        "restarting": 4,
        "verifying": 1
      },
      "description": "string",
      "distributionPolicy": {
        "zones": [
          {
            "zone": "string"
          },
          {
            "zone": "string"
          },
          {
            "zone": "string"
          },
          {
            "zone": "string"
          },
          {
            "zone": "string"
          },
          {
            "zone": "string"
          }
        ]
      },
      "fingerprint": "string",
      "id": "string",
      "instanceGroup": "string",
      "instanceTemplate": "string",
      "kind": "compute#instanceGroupManager",
      "name": "string",
      "namedPorts": [
        {
          "name": "string",
          "port": 4
        },
        {
          "name": "string",
          "port": 6
        },
        {
          "name": "string",
          "port": 1
        },
        {
          "name": "string",
          "port": 7
        },
        {
          "name": "string",
          "port": 5
        },
        {
          "name": "string",
          "port": 8
        },
        {
          "name": "string",
          "port": 5
        }
      ],
      "region": "string",
      "selfLink": "string",
      "statefulPolicy": {
        "preservedState": {
          "disks": {}
        }
      },
      "status": {
        "autoscaler": "string",
        "isStable": true,
        "stateful": {
          "hasStatefulConfig": true,
          "perInstanceConfigs": {
            "allEffective": false
          }
        },
        "versionTarget": {
          "isReached": true
        }
      },
      "targetPools": [
        "string",
        "string"
      ],
      "targetSize": 9,
      "updatePolicy": {
        "instanceRedistributionType": "NONE",
        "maxSurge": {
          "calculated": 5,
          "fixed": 2,
          "percent": 2
        },
        "maxUnavailable": {
          "calculated": 6,
          "fixed": 3,
          "percent": 5
        },
        "minimalAction": "REFRESH",
        "replacementMethod": "SUBSTITUTE",
        "type": "PROACTIVE"
      },
      "versions": [
        {
          "instanceTemplate": "string",
          "name": "string",
          "targetSize": {
            "calculated": 8,
            "fixed": 3,
            "percent": 6
          }
        },
        {
          "instanceTemplate": "string",
          "name": "string",
          "targetSize": {
            "calculated": 1,
            "fixed": 2,
            "percent": 2
          }
        },
        {
          "instanceTemplate": "string",
          "name": "string",
          "targetSize": {
            "calculated": 2,
            "fixed": 8,
            "percent": 8
          }
        }
      ],
      "zone": "string"
    }
  ],
  "kind": "compute#instanceGroupManagerList",
  "nextPageToken": "string",
  "selfLink": "string",
  "warning": {
    "code": "DEPRECATED_TYPE_USED",
    "data": [
      {
        "key": "string",
        "value": "string"
      },
      {
        "key": "string",
        "value": "string"
      },
      {
        "key": "string",
        "value": "string"
      },
      {
        "key": "string",
        "value": "string"
      },
      {
        "key": "string",
        "value": "string"
      },
      {
        "key": "string",
        "value": "string"
      }
    ],
    "message": "string"
  }
}