{
  "autoHealingPolicies": [
    {
      "healthCheck": "string",
      "initialDelaySec": 2
    },
    {
      "healthCheck": "string",
      "initialDelaySec": 9
    },
    {
      "healthCheck": "string",
      "initialDelaySec": 4
    },
    {
      "healthCheck": "string",
      "initialDelaySec": 7
    },
    {
      "healthCheck": "string",
      "initialDelaySec": 4
    },
    {
      "healthCheck": "string",
      "initialDelaySec": 3
    },
    {
      "healthCheck": "string",
      "initialDelaySec": 7
    },
    {
      "healthCheck": "string",
      "initialDelaySec": 10
    },
    {
      "healthCheck": "string",
      "initialDelaySec": 1
    }
  ],
  "baseInstanceName": "string",
  "creationTimestamp": "string",
  "currentActions": {
    "abandoning": 3,
    "creating": 8,
    "creatingWithoutRetries": 4,
    "deleting": 2,
    "none": 9,
    "recreating": 2,
    "refreshing": 10,
    "restarting": 7,
    "verifying": 6
  },
  "description": "string",
  "distributionPolicy": {
    "zones": [
      {
        "zone": "string"
      },
      {
        "zone": "string"
      },
      {
        "zone": "string"
      }
    ]
  },
  "fingerprint": "string",
  "id": "string",
  "instanceGroup": "string",
  "instanceTemplate": "string",
  "kind": "compute#instanceGroupManager",
  "name": "string",
  "namedPorts": [
    {
      "name": "string",
      "port": 7
    },
    {
      "name": "string",
      "port": 4
    }
  ],
  "region": "string",
  "selfLink": "string",
  "statefulPolicy": {
    "preservedState": {
      "disks": {}
    }
  },
  "status": {
    "autoscaler": "string",
    "isStable": true,
    "stateful": {
      "hasStatefulConfig": false,
      "perInstanceConfigs": {
        "allEffective": true
      }
    },
    "versionTarget": {
      "isReached": true
    }
  },
  "targetPools": [
    "string",
    "string",
    "string",
    "string",
    "string",
    "string",
    "string",
    "string",
    "string",
    "string"
  ],
  "targetSize": 3,
  "updatePolicy": {
    "instanceRedistributionType": "PROACTIVE",
    "maxSurge": {
      "calculated": 4,
      "fixed": 1,
      "percent": 2
    },
    "maxUnavailable": {
      "calculated": 8,
      "fixed": 1,
      "percent": 8
    },
    "minimalAction": "NONE",
    "replacementMethod": "SUBSTITUTE",
    "type": "OPPORTUNISTIC"
  },
  "versions": [
    {
      "instanceTemplate": "string",
      "name": "string",
      "targetSize": {
        "calculated": 6,
        "fixed": 7,
        "percent": 3
      }
    },
    {
      "instanceTemplate": "string",
      "name": "string",
      "targetSize": {
        "calculated": 4,
        "fixed": 8,
        "percent": 2
      }
    },
    {
      "instanceTemplate": "string",
      "name": "string",
      "targetSize": {
        "calculated": 1,
        "fixed": 5,
        "percent": 7
      }
    },
    {
      "instanceTemplate": "string",
      "name": "string",
      "targetSize": {
        "calculated": 3,
        "fixed": 10,
        "percent": 6
      }
    },
    {
      "instanceTemplate": "string",
      "name": "string",
      "targetSize": {
        "calculated": 1,
        "fixed": 9,
        "percent": 1
      }
    },
    {
      "instanceTemplate": "string",
      "name": "string",
      "targetSize": {
        "calculated": 3,
        "fixed": 3,
        "percent": 6
      }
    },
    {
      "instanceTemplate": "string",
      "name": "string",
      "targetSize": {
        "calculated": 2,
        "fixed": 8,
        "percent": 9
      }
    },
    {
      "instanceTemplate": "string",
      "name": "string",
      "targetSize": {
        "calculated": 3,
        "fixed": 2,
        "percent": 10
      }
    }
  ],
  "zone": "string"
}