{
  "items": [
    {
      "fingerprint": "string",
      "name": "string",
      "preservedState": {
        "disks": {},
        "metadata": {}
      },
      "status": "NONE"
    },
    {
      "fingerprint": "string",
      "name": "string",
      "preservedState": {
        "disks": {},
        "metadata": {}
      },
      "status": "DELETING"
    },
    {
      "fingerprint": "string",
      "name": "string",
      "preservedState": {
        "disks": {},
        "metadata": {}
      },
      "status": "APPLYING"
    },
    {
      "fingerprint": "string",
      "name": "string",
      "preservedState": {
        "disks": {},
        "metadata": {}
      },
      "status": "UNAPPLIED_DELETION"
    },
    {
      "fingerprint": "string",
      "name": "string",
      "preservedState": {
        "disks": {},
        "metadata": {}
      },
      "status": "NONE"
    }
  ],
  "nextPageToken": "string",
  "warning": {
    "code": "NEXT_HOP_INSTANCE_NOT_ON_NETWORK",
    "data": [
      {
        "key": "string",
        "value": "string"
      },
      {
        "key": "string",
        "value": "string"
      }
    ],
    "message": "string"
  }
}