{
  "creationTimestamp": "string",
  "description": "string",
  "id": "string",
  "kind": "compute#targetHttpProxy",
  "name": "string",
  "region": "string",
  "selfLink": "string",
  "urlMap": "string"
}