{
  "actions": [
    {
      "name": "getProjectAggregatedTargetInstances",
      "protocol": "REST",
      "method": "GET",
      "entitypath": "{base_path}/{version}/projects/{pathv1}/aggregated/targetInstances?{query}",
      "requestSchema": "schema.json",
      "responseSchema": "schema.json",
      "timeout": 0,
      "sendEmpty": false,
      "sendGetBody": false,
      "requestDatatype": "JSON",
      "responseDatatype": "JSON",
      "headers": {},
      "responseObjects": [
        {
          "type": "default",
          "key": "",
          "mockFile": "mockdatafiles/getProjectAggregatedTargetInstances-default.json"
        }
      ]
    },
    {
      "name": "getProjectZonesZoneTargetInstances",
      "protocol": "REST",
      "method": "GET",
      "entitypath": "{base_path}/{version}/projects/{pathv1}/zones/{pathv2}/targetInstances?{query}",
      "requestSchema": "schema.json",
      "responseSchema": "schema.json",
      "timeout": 0,
      "sendEmpty": false,
      "sendGetBody": false,
      "requestDatatype": "JSON",
      "responseDatatype": "JSON",
      "headers": {},
      "responseObjects": [
        {
          "type": "default",
          "key": "",
          "mockFile": "mockdatafiles/getProjectZonesZoneTargetInstances-default.json"
        }
      ]
    },
    {
      "name": "postProjectZonesZoneTargetInstances",
      "protocol": "REST",
      "method": "POST",
      "entitypath": "{base_path}/{version}/projects/{pathv1}/zones/{pathv2}/targetInstances?{query}",
      "requestSchema": "schema.json",
      "responseSchema": "schema.json",
      "timeout": 0,
      "sendEmpty": false,
      "requestDatatype": "JSON",
      "responseDatatype": "JSON",
      "headers": {},
      "responseObjects": [
        {
          "type": "default",
          "key": "",
          "mockFile": "mockdatafiles/postProjectZonesZoneTargetInstances-default.json"
        }
      ]
    },
    {
      "name": "deleteProjectZonesZoneTargetInstancesTargetInstance",
      "protocol": "REST",
      "method": "DELETE",
      "entitypath": "{base_path}/{version}/projects/{pathv1}/zones/{pathv2}/targetInstances/{pathv3}?{query}",
      "requestSchema": "schema.json",
      "responseSchema": "schema.json",
      "timeout": 0,
      "sendEmpty": false,
      "requestDatatype": "JSON",
      "responseDatatype": "JSON",
      "headers": {},
      "responseObjects": [
        {
          "type": "default",
          "key": "",
          "mockFile": "mockdatafiles/deleteProjectZonesZoneTargetInstancesTargetInstance-default.json"
        }
      ]
    },
    {
      "name": "getProjectZonesZoneTargetInstancesTargetInstance",
      "protocol": "REST",
      "method": "GET",
      "entitypath": "{base_path}/{version}/projects/{pathv1}/zones/{pathv2}/targetInstances/{pathv3}?{query}",
      "requestSchema": "schema.json",
      "responseSchema": "schema.json",
      "timeout": 0,
      "sendEmpty": false,
      "sendGetBody": false,
      "requestDatatype": "JSON",
      "responseDatatype": "JSON",
      "headers": {},
      "responseObjects": [
        {
          "type": "default",
          "key": "",
          "mockFile": "mockdatafiles/getProjectZonesZoneTargetInstancesTargetInstance-default.json"
        }
      ]
    }
  ]
}