{
  "preconfiguredExpressionSets": {
    "wafRules": {
      "expressionSets": [
        {
          "aliases": [
            "string",
            "string",
            "string"
          ],
          "expressions": [
            {
              "id": "string"
            },
            {
              "id": "string"
            },
            {
              "id": "string"
            },
            {
              "id": "string"
            }
          ],
          "id": "string"
        },
        {
          "aliases": [
            "string",
            "string"
          ],
          "expressions": [
            {
              "id": "string"
            },
            {
              "id": "string"
            },
            {
              "id": "string"
            },
            {
              "id": "string"
            },
            {
              "id": "string"
            }
          ],
          "id": "string"
        },
        {
          "aliases": [
            "string",
            "string",
            "string",
            "string",
            "string",
            "string"
          ],
          "expressions": [
            {
              "id": "string"
            },
            {
              "id": "string"
            },
            {
              "id": "string"
            },
            {
              "id": "string"
            },
            {
              "id": "string"
            },
            {
              "id": "string"
            },
            {
              "id": "string"
            },
            {
              "id": "string"
            }
          ],
          "id": "string"
        },
        {
          "aliases": [
            "string",
            "string",
            "string"
          ],
          "expressions": [
            {
              "id": "string"
            },
            {
              "id": "string"
            },
            {
              "id": "string"
            },
            {
              "id": "string"
            },
            {
              "id": "string"
            },
            {
              "id": "string"
            },
            {
              "id": "string"
            },
            {
              "id": "string"
            }
          ],
          "id": "string"
        },
        {
          "aliases": [
            "string",
            "string"
          ],
          "expressions": [
            {
              "id": "string"
            },
            {
              "id": "string"
            },
            {
              "id": "string"
            },
            {
              "id": "string"
            }
          ],
          "id": "string"
        },
        {
          "aliases": [
            "string",
            "string",
            "string",
            "string",
            "string"
          ],
          "expressions": [
            {
              "id": "string"
            },
            {
              "id": "string"
            },
            {
              "id": "string"
            },
            {
              "id": "string"
            },
            {
              "id": "string"
            },
            {
              "id": "string"
            },
            {
              "id": "string"
            },
            {
              "id": "string"
            },
            {
              "id": "string"
            }
          ],
          "id": "string"
        },
        {
          "aliases": [
            "string",
            "string",
            "string",
            "string",
            "string"
          ],
          "expressions": [
            {
              "id": "string"
            },
            {
              "id": "string"
            },
            {
              "id": "string"
            },
            {
              "id": "string"
            },
            {
              "id": "string"
            }
          ],
          "id": "string"
        },
        {
          "aliases": [
            "string",
            "string",
            "string",
            "string",
            "string"
          ],
          "expressions": [
            {
              "id": "string"
            },
            {
              "id": "string"
            },
            {
              "id": "string"
            }
          ],
          "id": "string"
        },
        {
          "aliases": [
            "string",
            "string",
            "string"
          ],
          "expressions": [
            {
              "id": "string"
            },
            {
              "id": "string"
            },
            {
              "id": "string"
            },
            {
              "id": "string"
            },
            {
              "id": "string"
            },
            {
              "id": "string"
            },
            {
              "id": "string"
            },
            {
              "id": "string"
            }
          ],
          "id": "string"
        }
      ]
    }
  }
}