{
  "cpuPlatform": "string",
  "creationTimestamp": "string",
  "deprecated": {
    "deleted": "string",
    "deprecated": "string",
    "obsolete": "string",
    "replacement": "string",
    "state": "OBSOLETE"
  },
  "description": "string",
  "guestCpus": 2,
  "id": "string",
  "kind": "compute#nodeType",
  "localSsdGb": 8,
  "memoryMb": 7,
  "name": "string",
  "selfLink": "string",
  "zone": "string"
}