{
  "creationTimestamp": "string",
  "description": "string",
  "id": "string",
  "kind": "compute#targetHttpsProxy",
  "name": "string",
  "quicOverride": "DISABLE",
  "region": "string",
  "selfLink": "string",
  "sslCertificates": [
    "string",
    "string",
    "string",
    "string",
    "string",
    "string",
    "string",
    "string",
    "string"
  ],
  "sslPolicy": "string",
  "urlMap": "string"
}